module gitlab.com/todos/todos

go 1.15

require (
	github.com/casbin/casbin/v2 v2.30.2
	github.com/casbin/gorm-adapter/v2 v2.1.0
	github.com/dgrijalva/jwt-go v3.2.0+incompatible
	github.com/gin-gonic/gin v1.7.1
	github.com/golang/protobuf v1.5.2
	github.com/google/uuid v1.2.0
	github.com/jmoiron/sqlx v1.3.4
	github.com/joho/godotenv v1.3.0
	github.com/lib/pq v1.10.2
	github.com/spf13/cast v1.3.1
	github.com/swaggo/files v0.0.0-20190704085106-630677cd5c14
	github.com/swaggo/gin-swagger v1.3.0
	github.com/swaggo/swag v1.7.0
	go.uber.org/zap v1.16.0
	golang.org/x/crypto v0.0.0-20210513164829-c07d793c2f9a
	google.golang.org/grpc v1.37.1
)
